Get started
…
Passing the .factor argument as 2 means multiply those
base values by 2 for the upper extreme and 1/2 for the lower extreme.
The .n argument says to fill in 5 parameter values between
those two extremes.

The sens_each() function call above tells you to vary
CL and VC one at a time.

The output is a tibble in long format, with class
sens_each

out

. # A tibble: 9,680 × 7
.     case  time p_name p_value dv_name dv_value ref_value
.  * <int> <dbl> <chr>    <dbl> <chr>      <dbl>     <dbl>
.  1     1  0    CL         0.5 RESP       50        50   
.  2     1  0    CL         0.5 RESP       50        50   
.  3     1  0    CL         0.5 CP          0         0   
.  4     1  0    CL         0.5 CP          0         0   
.  5     1  0    CL         0.5 RESP       50        50   
.  6     1  0    CL         0.5 RESP       50        50   
.  7     1  0    CL         0.5 CP          0         0   
.  8     1  0    CL         0.5 CP          0         0   
.  9     1  0.25 CL         0.5 RESP       48.7      48.7 
. 10     1  0.25 CL         0.5 CP          1.29      1.29
. # ℹ 9,670 more rows
…
